…
# Re-analysis Figure 1 of (Li, et al., 2021) Molecular Basis for Ligand Activation of the Human KCNQ2 Channel

KCNQ2 is a voltage gated potassium channel important for re-establishing neuronal homeostasis following an action potential. Dis-regulation of channels in the KCNQ family can cause epilepsy, tinnitus, and depression. While there has been sustained interest in developing small-molecule based therapeutics targeting KCNQ2, the only FDA approved drug that targets KCNQ2, retigabine, was given a black-box warning due to unwanted side-effects, even though it was effective at treating epilepsy. Excitingly there has been recent progress in using Cryo-EM to structurally characterize ion channels including KCNQ2, which promise to support structure-based drug design.

Recently, [@Li2021-ef] used Cryo-EM to characterize the structure of KCNQ2 in complex with retigabine, which interacts in the membrane on the outside of the pore, and ztz240, which interacts with the voltage sensor domain. To relate the structure and function, [@Li2021-ef] measured conductance as a function of voltage (G-V curves) in the presence of varying doses of retigabine and ztz240 using whole cell patch-clamp electrophysiology in Chinese hamster ovary (CHO)-K1 cells overexpressing KCNQ2. Both compounds are thought to be agonists, that is with increasing concentration of drug, less negative voltages are required to open the channel.

In this case study, the aim is to re-analyze the effects of retigabine and ztz240 using the data collected in [@Li2021-ef] and presented in panels B and D of figure 1. A key idea is to recognize that voltage and drug treatment can be thought of independent perturbations and the drug effect can be framed as characterizing the interaction between these perturbations.

To begin, we will load and plot the data,


```
## # A tibble: 1,856 × 6
##    treatment dose_uM is_control voltage replica   conductance
##    <chr>       <dbl> <lgl>        <dbl> <chr>           <dbl>
##  1 ztz240         10 TRUE           -90 replica_1      0.0403
##  2 ztz240         10 TRUE           -90 replica_2      0.0632
##  3 ztz240         10 TRUE           -90 replica_3      0.0200
##  4 ztz240         10 TRUE           -90 replica_4      0.0404
##  5 ztz240         10 TRUE           -90 replica_5      0.0175
##  6 ztz240         10 TRUE           -80 replica_1      0.0469
##  7 ztz240         10 TRUE           -80 replica_2      0.0682
##  8 ztz240         10 TRUE           -80 replica_3      0.0345
##  9 ztz240         10 TRUE           -80 replica_4      0.0574
## 10 ztz240         10 TRUE           -80 replica_5      0.0339
## # ℹ 1,846 more rows
```
…
Join the conductance model with the dose information to model how the voltage
dependence depends on the drug dose

```
## # A tibble: 44 × 15
##    variable_type variable predictors_label                     mean median      sd     mad     q5     q95  rhat ess_bulk ess_tail treatment  logdose doselabel
##    <chr>         <chr>    <chr>                               <dbl>  <dbl>   <dbl>   <dbl>  <dbl>   <dbl> <dbl>    <dbl>    <dbl> <chr>        <dbl> <fct>    
##  1 b             ec50     treatmentztz240:doselabel0.1uM     -0.116 -0.116 0.0147  0.0148  -0.140 -0.0918  1.00   23072.   11779. ztz240       -7    0.1 uM   
##  2 b             ec50     treatmentretigabine:doselabel0.3uM -0.189 -0.189 0.0121  0.0122  -0.209 -0.170   1.00   23620.   12800. retigabine   -6.52 0.3 uM   
##  3 b             ec50     treatmentretigabine:doselabel1uM   -0.247 -0.247 0.0144  0.0144  -0.271 -0.224   1.00   22963.   12804. retigabine   -6    1 uM     
##  4 b             ec50     treatmentztz240:doselabel1uM       -0.194 -0.194 0.0117  0.0117  -0.213 -0.175   1.00   23523.   12045. ztz240       -6    1 uM     
##  5 b             ec50     treatmentretigabine:doselabel10uM  -0.451 -0.451 0.0139  0.0137  -0.475 -0.429   1.00   17121.   11505. retigabine   -5    10 uM    
##  6 b             ec50     treatmentztz240:doselabel10uM      -0.438 -0.438 0.00828 0.00821 -0.452 -0.425   1.00   23429.   12318. ztz240       -5    10 uM    
##  7 b             ec50     treatmentretigabine:doselabel3uM   -0.356 -0.356 0.0124  0.0124  -0.376 -0.336   1.00   21177.   12455. retigabine   -5.52 3 uM     
##  8 b             ec50     treatmentztz240:doselabel3uM       -0.322 -0.322 0.0108  0.0108  -0.340 -0.304   1.00   22522.   13052. ztz240       -5.52 3 uM     
##  9 b             ec50     treatmentretigabine:doselabel30uM  -0.430 -0.429 0.0136  0.0133  -0.453 -0.408   1.00   16711.   10825. retigabine   -4.52 30 uM    
## 10 b             ec50     treatmentretigabine:doselabel5uM   -0.398 -0.398 0.0122  0.0120  -0.418 -0.378   1.00   19719.   12734. retigabine   -5.30 5 uM     
## # ℹ 34 more rows
```
…
