Apply: MuSyC Model -- KCNQ Conductance • BayesPharma
…
In this case study, the aim is to re-analyze the effects of
retigabine and ztz240 using the data collected in (Li et al. 2021) and presented in panels B and D
of figure 1. A key idea is to recognize that voltage and drug treatment
can be thought of independent perturbations and the drug effect can be
framed as characterizing the interaction between these
perturbations.

To begin, we will load and plot the data,

## # A tibble: 1,856 × 6
##    treatment dose_uM is_control voltage replica   conductance
##    <chr>       <dbl> <lgl>        <dbl> <chr>           <dbl>
##  1 ztz240         10 TRUE           -90 replica_1      0.0403
##  2 ztz240         10 TRUE           -90 replica_2      0.0632
##  3 ztz240         10 TRUE           -90 replica_3      0.0200
##  4 ztz240         10 TRUE           -90 replica_4      0.0404
##  5 ztz240         10 TRUE           -90 replica_5      0.0175
##  6 ztz240         10 TRUE           -80 replica_1      0.0469
##  7 ztz240         10 TRUE           -80 replica_2      0.0682
##  8 ztz240         10 TRUE           -80 replica_3      0.0345
##  9 ztz240         10 TRUE           -80 replica_4      0.0574
## 10 ztz240         10 TRUE           -80 replica_5      0.0339
## # ℹ 1,846 more rows
…
plot of chunk model-conductance-predictive

Fit MuSyC Model

Join the conductance model with the dose information to model how the
voltage dependence depends on the drug dose

## # A tibble: 44 × 15
##    variable_type variable predictors_label                     mean median      sd     mad     q5     q95  rhat ess_bulk ess_tail treatment  logdose doselabel
##    <chr>         <chr>    <chr>                               <dbl>  <dbl>   <dbl>   <dbl>  <dbl>   <dbl> <dbl>    <dbl>    <dbl> <chr>        <dbl> <fct>    
##  1 b             ec50     treatmentztz240:doselabel0.1uM     -0.116 -0.116 0.0148  0.0148  -0.140 -0.0917  1.00   20112.   12356. ztz240       -7    0.1 uM   
##  2 b             ec50     treatmentretigabine:doselabel0.3uM -0.189 -0.189 0.0120  0.0121  -0.209 -0.169   1.00   20674.   12046. retigabine   -6.52 0.3 uM   
##  3 b             ec50     treatmentretigabine:doselabel1uM   -0.247 -0.247 0.0144  0.0143  -0.271 -0.223   1.00   20200.   11840. retigabine   -6    1 uM     
##  4 b             ec50     treatmentztz240:doselabel1uM       -0.194 -0.194 0.0117  0.0116  -0.213 -0.175   1.00   21047.   12201. ztz240       -6    1 uM     
##  5 b             ec50     treatmentretigabine:doselabel10uM  -0.451 -0.451 0.0140  0.0137  -0.475 -0.429   1.00   15013.   11288. retigabine   -5    10 uM    
##  6 b             ec50     treatmentztz240:doselabel10uM      -0.438 -0.438 0.00826 0.00820 -0.452 -0.425   1.00   20191.   13625. ztz240       -5    10 uM    
##  7 b             ec50     treatmentretigabine:doselabel3uM   -0.356 -0.356 0.0125  0.0123  -0.376 -0.335   1.00   20172.   12850. retigabine   -5.52 3 uM     
##  8 b             ec50     treatmentztz240:doselabel3uM       -0.322 -0.322 0.0107  0.0107  -0.339 -0.304   1.00   21541.   12613. ztz240       -5.52 3 uM     
##  9 b             ec50     treatmentretigabine:doselabel30uM  -0.430 -0.429 0.0137  0.0137  -0.453 -0.408   1.00   16259.   11210. retigabine   -4.52 30 uM    
## 10 b             ec50     treatmentretigabine:doselabel5uM   -0.398 -0.398 0.0121  0.0120  -0.418 -0.378   1.00   19745.   12022. retigabine   -5.30 5 uM     
## # ℹ 34 more rows
…
